<svg xmlns="http://www.w3.org/2000/svg" xmlns:xlink="http://www.w3.org/1999/xlink" xmlns:ev="http://www.w3.org/2001/xml-events"
		xmlns:v="http://schemas.microsoft.com/visio/2003/SVGExtensions/" width="0.474984in" height="0.670522in"
		viewBox="0 0 34.1988 48.2776" xml:space="preserve" color-interpolation-filters="sRGB" class="st2">

 <linearGradient id="anim"  x1="0%" y1="100%">
      <stop offset="0%" stop-color="#C7C402" stop-opacity="1">
		<animate attributeName="stop-color" 
		values="#C7C402;#FEFE82;#C7C402" dur="500ms" repeatCount="indefinite"/>
		</stop>
    </linearGradient>
    
		<g id="shape1-1" v:mID="1" v:groupContext="shape" transform="translate(0.375,-0.375)">
			<path fill="url(#anim)"  d="M0 2.92 L0 48.28 L22.11 48.28 L22.11 45.44 L33.45 45.44 L33.45 5.76 L22.11 5.76 L22.11 2.92 L17.29 2.92 L17.29
						 0.75 L7.94 0.75 L7.94 2.73 L0 2.92 Z" class="st1"/>
		</g>
</svg>
