<svg xmlns="http://www.w3.org/2000/svg" xmlns:xlink="http://www.w3.org/1999/xlink" xmlns:ev="http://www.w3.org/2001/xml-events"
		xmlns:v="http://schemas.microsoft.com/visio/2003/SVGExtensions/" width="1.6227in" height="0.689633in"
		viewBox="0 0 116.835 49.6535" xml:space="preserve" color-interpolation-filters="sRGB" class="st2">

	<linearGradient id="anim"  x1="0%" y1="100%">
      <stop offset="0%" stop-color="#C7C402" stop-opacity="1">
		<animate attributeName="stop-color"
				 values="#C7C402;#FEFE82;#C7C402" dur="500ms" repeatCount="indefinite"/>
		</stop>
    </linearGradient>

		<g id="shape3-1" v:mID="3" v:groupContext="shape" transform="translate(3,-3)">
			<title>Sheet.3</title>
			<path fill="url(#anim)" d="M0 31.51 L8.79 31.51 L8.79 40.02 L31.46 40.02 L31.46 49.65 L110.83 49.65 L110.83 6 L8.79 6 L8.79 23.01 L0 23.01
						 L0 31.51 Z" class="st1"/>
		</g>

</svg>
