<svg xmlns="http://www.w3.org/2000/svg" xmlns:xlink="http://www.w3.org/1999/xlink" xmlns:ev="http://www.w3.org/2001/xml-events"
		xmlns:v="http://schemas.microsoft.com/visio/2003/SVGExtensions/" width="1.18963in" height="0.610892in"
		viewBox="0 0 85.6535 43.9843" xml:space="preserve" color-interpolation-filters="sRGB" class="st2">

	<linearGradient id="anim"  x1="0%" y1="100%">
      <stop offset="0%" stop-color="red" stop-opacity="1">
      		<animate attributeName="stop-color"
					 values="red;rgba(255,0,0,0.3);red" dur="00ms" repeatCount="indefinite"/>
		</stop>
    </linearGradient>
	
		<g id="shape2-1" v:mID="2" v:groupContext="shape" transform="translate(3,-3)">
			<title>Sheet.2</title>
			<path fill="url(#anim)" d="M5.95 6 L5.95 19.04 L0 19.04 L0 30.94 L3.97 30.94 L3.97 35.48 L7.37 35.48 L7.37 43.98 L79.65 43.98 L79.65 6
						 L5.95 6 Z" class="st1"/>
		</g>

</svg>
