<svg xmlns="http://www.w3.org/2000/svg" xmlns:xlink="http://www.w3.org/1999/xlink" xmlns:ev="http://www.w3.org/2001/xml-events"
		xmlns:v="http://schemas.microsoft.com/visio/2003/SVGExtensions/" width="1.1857in" height="1.04396in"
		viewBox="0 0 85.3701 75.1654" xml:space="preserve" color-interpolation-filters="sRGB" class="st2">

	<linearGradient id="anim"  fy="0">
      <stop offset="0" stop-color="#148F01">
		</stop>
		<stop offset=".7" stop-color="#46DF04">
		</stop>
    </linearGradient>

		<g id="shape3-1" v:mID="3" v:groupContext="shape" transform="translate(3,-3)">
			<title>Sheet.3</title>
			<path fill="url(#anim)" stroke='rgba(49,163,0,0.7)' d="M45.64 75.17 L51.02 75.17 L51.02 68.36 L69.45 68.36 L69.45 57.02 L79.37 57.02 L79.37 6 L0 6 L0 57.02 L17.01
						 57.02 L17.01 68.36 L29.2 68.36 L29.2 75.17 L45.64 75.17 Z" class="st1"/>
		</g>

</svg>