<svg xmlns="http://www.w3.org/2000/svg" xmlns:xlink="http://www.w3.org/1999/xlink" xmlns:ev="http://www.w3.org/2001/xml-events"
		xmlns:v="http://schemas.microsoft.com/visio/2003/SVGExtensions/" width="1.10696in" height="1.02822in"
		viewBox="0 0 79.7008 74.0315" xml:space="preserve" color-interpolation-filters="sRGB" class="st3">

	<linearGradient id="anim"  x1="0%" y1="100%">
      <stop offset="0%" stop-color="#148F01" stop-opacity="1">
      		<animate attributeName="stop-color"
					 values="red;rgba(255,0,0,0.3);red" dur="50ms" repeatCount="indefinite"/>
		</stop>
    </linearGradient>

		<g id="shape4-3" v:mID="4" v:groupContext="shape" transform="translate(3,-3)">
			<title>Sheet.4</title>
			<path fill="#D7D7D7" d="M0 6 L0 74.03 L70.58 74.03 L70.58 57.02 L73.7 57.02 L73.7 6 L0 6 Z" class="st2"/>
		</g>

</svg>